{
    "apiVersion":"v1",
    "kind":"Service",
    "metadata":{
        "name":"upload-service",
        "labels": {
            "app": "upload-service",
            "version": "v1"
        }
    },
    "spec": {
        "selector": {
            "app": "upload-app",
            "version":"v1"
        },
        "type": "NodePort",
        "ports": [
            {
                "protocol":"TCP",
                "port": 3000,
                "nodePort": 32000
            }
        ]
    }
}